HTTP/1.1 200 OK
Date: Wed, 18 Nov 2020 15:40:25 GMT
Server: Apache/2.2.21 (Win32)
Last-Modified: Tue, 17 Nov 2020 12:10:23 GMT
ETag: "100000005b8ad-16e-5b44c612433a0"
Accept-Ranges: bytes
Content-Length: 366
Keep-Alive: timeout=5, max=100
Connection: Keep-Alive
Content-Type: text/html

