		2020.0.0.793                  C:\Program Files (x86)\Micro Focus\LoadRunner\bin\VuGen.exe
		10.0.18362.1130 (WinBuild.160101.0800)C:\Windows\SYSTEM32\ntdll.dll
		10.0.18362.1 (WinBuild.160101.0800)C:\Windows\SYSTEM32\MSCOREE.DLL
		10.0.18362.1130 (WinBuild.160101.0800)C:\Windows\System32\KERNEL32.dll
		10.0.18362.1130 (WinBuild.160101.0800)C:\Windows\System32\KERNELBASE.dll
		10.0.18362.1130 (WinBuild.160101.0800)C:\Windows\System32\ADVAPI32.dll
		7.0.18362.1 (WinBuild.160101.0800)C:\Windows\System32\msvcrt.dll
		10.0.18362.650 (WinBuild.160101.0800)C:\Windows\System32\sechost.dll
		10.0.18362.1130 (WinBuild.160101.0800)C:\Windows\System32\RPCRT4.dll
		10.0.18362.1049 (WinBuild.160101.0800)C:\Windows\System32\SspiCli.dll
		10.0.18362.1 (WinBuild.160101.0800)C:\Windows\System32\CRYPTBASE.dll
		10.0.18362.836 (WinBuild.160101.0800)C:\Windows\System32\bcryptPrimitives.dll
		4.8.4180.0 built by: NET48REL1LAST_BC:\Windows\Microsoft.NET\Framework\v4.0.30319\mscoreei.dll
		10.0.18362.1130 (WinBuild.160101.0800)C:\Windows\System32\SHLWAPI.dll
		10.0.18362.1130 (WinBuild.160101.0800)C:\Windows\System32\combase.dll
		10.0.18362.1110 (WinBuild.160101.0800)C:\Windows\System32\ucrtbase.dll
		10.0.18362.1 (WinBuild.160101.0800)C:\Windows\System32\GDI32.dll
		10.0.18362.1198 (WinBuild.160101.0800)C:\Windows\System32\win32u.dll
		10.0.18362.1139 (WinBuild.160101.0800)C:\Windows\System32\gdi32full.dll
		10.0.18362.1110 (WinBuild.160101.0800)C:\Windows\System32\msvcp_win.dll
		10.0.18362.1130 (WinBuild.160101.0800)C:\Windows\System32\USER32.dll
		10.0.18362.387 (WinBuild.160101.0800)C:\Windows\System32\IMM32.DLL
		10.0.18362.1171 (WinBuild.160101.0800)C:\Windows\System32\kernel.appcore.dll
		10.0.18362.1 (WinBuild.160101.0800)C:\Windows\SYSTEM32\VERSION.dll
		4.8.4250.0 built by: NET48REL1LAST_CC:\Windows\Microsoft.NET\Framework\v4.0.30319\clr.dll
		14.10.25028.0 built by: VCTOOLSD15RTMC:\Windows\SYSTEM32\VCRUNTIME140_CLR0400.dll
		14.10.25028.0 built by: VCTOOLSD15RTMC:\Windows\SYSTEM32\ucrtbase_clr0400.dll
		4.8.4250.0 built by: NET48REL1LAST_CC:\Windows\assembly\NativeImages_v4.0.30319_32\mscorlib\1c960778124fb2c275142764edfbee19\mscorlib.ni.dll
		10.0.18362.1130 (WinBuild.160101.0800)C:\Windows\System32\ole32.dll
		10.0.18362.1130 (WinBuild.160101.0800)C:\Windows\system32\uxtheme.dll
		4.8.4250.0 built by: NET48REL1LAST_CC:\Windows\Microsoft.NET\Framework\v4.0.30319\clrjit.dll
		10.0.18362.1110 (WinBuild.160101.0800)C:\Windows\System32\OLEAUT32.dll
		4.8.4200.0 built by: NET48REL1LAST_CC:\Windows\assembly\NativeImages_v4.0.30319_32\System\207c451025b742ff1c2c902bf87d96e8\System.ni.dll
		4.8.3752.0 built by: NET48REL1C:\Windows\assembly\NativeImages_v4.0.30319_32\System.Drawing\7a281975b51e0659702ac6202826efe9\System.Drawing.ni.dll
		4.8.4270.0 built by: NET48REL1LAST_CC:\Windows\assembly\NativeImages_v4.0.30319_32\System.Windows.Forms\96ba2ca1e49cb2bb59f184382cba3b9e\System.Windows.Forms.ni.dll
		4.8.4270.0 built by: NET48REL1LAST_CC:\Windows\assembly\NativeImages_v4.0.30319_32\System.Core\36944d22c340f0fb600b908f8b41d70b\System.Core.ni.dll
		4.8.4250.0 built by: NET48REL1LAST_CC:\Windows\assembly\NativeImages_v4.0.30319_32\System.Servf73e6522#\73302c5c9351a13b208490d49a0315e1\System.ServiceModel.Web.ni.dll
		10.0.18362.1 (WinBuild.160101.0800)C:\Windows\System32\CRYPTSP.dll
		10.0.18362.650 (WinBuild.160101.0800)C:\Windows\system32\rsaenh.dll
		10.0.18362.1130 (WinBuild.160101.0800)C:\Windows\System32\bcrypt.dll
		4.8.4250.0 built by: NET48REL1LAST_CC:\Windows\assembly\NativeImages_v4.0.30319_32\System.ServiceModel\8a0b94f30b5249f31ddf40c091535937\System.ServiceModel.ni.dll
		4.8.4190.0 built by: NET48REL1LAST_BC:\Windows\assembly\NativeImages_v4.0.30319_32\System.Configuration\0f3632e6e8b9a7a1ae09234bb2877121\System.Configuration.ni.dll
		4.8.3752.0 built by: NET48REL1C:\Windows\assembly\NativeImages_v4.0.30319_32\System.Xml\e43e4c27e62ccfa247f5534f26779f1b\System.Xml.ni.dll
		10.0.18362.1130 (WinBuild.160101.0800)C:\Windows\System32\shell32.dll
		10.0.18362.387 (WinBuild.160101.0800)C:\Windows\System32\cfgmgr32.dll
		10.0.18362.1130 (WinBuild.160101.0800)C:\Windows\System32\shcore.dll
		10.0.18362.1130 (WinBuild.160101.0800)C:\Windows\System32\windows.storage.dll
		10.0.18362.693 (WinBuild.160101.0800)C:\Windows\System32\profapi.dll
		10.0.18362.1130 (WinBuild.160101.0800)C:\Windows\System32\powrprof.dll
		                              C:\Windows\System32\UMPDC.dll
		4.8.4270.0 built by: NET48REL1LAST_CC:\Windows\assembly\NativeImages_v4.0.30319_32\WindowsBase\e050a3d966d7573ad6874648b319ec2e\WindowsBase.ni.dll
		4.8.4270.0 built by: NET48REL1LAST_CC:\Windows\assembly\NativeImages_v4.0.30319_32\PresentationCore\5d86a10f97e13c3352347ce4213f78f5\PresentationCore.ni.dll
		4.8.4270.0                    C:\Windows\assembly\NativeImages_v4.0.30319_32\Presentatio5ae0f00f#\ccaadeb8de0548f36cf070cfd37ce491\PresentationFramework.ni.dll
		4.8.4270.0 built by: NET48REL1LAST_CC:\Windows\assembly\NativeImages_v4.0.30319_32\System.Xaml\cfa1a9cc9ee8ee7a571a0fab7e1b884a\System.Xaml.ni.dll
		5.82 (WinBuild.160101.0800)   C:\Windows\WinSxS\x86_microsoft.windows.common-controls_6595b64144ccf1df_5.82.18362.1198_none_bb60abf7ec91ff24\comctl32.dll
		10.0.18362.1130 (WinBuild.160101.0800)C:\Windows\SYSTEM32\dwrite.dll
		4.8.4270.0 built by: NET48REL1LAST_CC:\Windows\Microsoft.NET\Framework\v4.0.30319\WPF\wpfgfx_v0400.dll
		14.10.25028.0 built by: VCTOOLSD15RTMC:\Windows\SYSTEM32\MSVCP140_CLR0400.dll
		10.0.18362.1198 (WinBuild.160101.0800)C:\Windows\WinSxS\x86_microsoft.windows.gdiplus_6595b64144ccf1df_1.1.18362.1198_none_171a351453697c03\gdiplus.dll
		4.8.4270.0 built by: NET48REL1LAST_CC:\Windows\Microsoft.NET\Framework\v4.0.30319\WPF\PresentationNative_v0400.dll
		10.0.18362.1130 (WinBuild.160101.0800)C:\Windows\System32\MSCTF.dll
		2001.12.10941.16384 (WinBuild.160101.0800)C:\Windows\System32\clbcatq.dll
		2020.0.0.248                  C:\Program Files (x86)\Micro Focus\LoadRunner\bin\RegistryUtil.dll
		14.13.26020.0 built by: VCTOOLSRELC:\Windows\SYSTEM32\VCRUNTIME140.dll
		14.13.26020.0 built by: VCTOOLSRELC:\Windows\SYSTEM32\mfc140.dll
		10.0.18362.959 (WinBuild.160101.0800)C:\Windows\SYSTEM32\WindowsCodecs.dll
		10.0.18362.1171 (WinBuild.160101.0800)C:\Windows\System32\TextInputFramework.dll
		10.0.18362.1049               C:\Windows\System32\CoreMessaging.dll
		10.0.18362.1110               C:\Windows\System32\CoreUIComponents.dll
		10.0.18362.1130 (WinBuild.160101.0800)C:\Windows\SYSTEM32\ntmarta.dll
		10.0.18362.1130 (WinBuild.160101.0800)C:\Windows\SYSTEM32\wintypes.dll
		11.00.18362.1130 (WinBuild.160101.0800)C:\Windows\System32\iertutil.dll
		4.8.3752.0 built by: NET48REL1C:\Windows\assembly\NativeImages_v4.0.30319_32\System.Numerics\33025ed48f6fbc7a6889d13b8c215a60\System.Numerics.ni.dll
		6.10 (WinBuild.160101.0800)   C:\Windows\WinSxS\x86_microsoft.windows.common-controls_6595b64144ccf1df_6.0.18362.1198_none_e62f422ef8d70235\comctl32.dll
		4.8.4250.0 built by: NET48REL1LAST_CC:\Windows\assembly\NativeImages_v4.0.30319_32\System.Runteb92aa12#\6ef9ac9c9595f6395f15cce32a20160f\System.Runtime.Serialization.ni.dll
		4.8.3752.0 built by: NET48REL1C:\Windows\assembly\NativeImages_v4.0.30319_32\System.Xml.Linq\76ac0d55891409344f964424d622d283\System.Xml.Linq.ni.dll
		4.8.4270.0 built by: NET48REL1LAST_CC:\Windows\assembly\NativeImages_v4.0.30319_32\System.Data\43ad4ebaab3dbccb05ca78ce19a08c52\System.Data.ni.dll
		4.8.4270.0 built by: NET48REL1LAST_CC:\Windows\Microsoft.Net\assembly\GAC_32\System.Data\v4.0_4.0.0.0__b77a5c561934e089\System.Data.dll
		10.0.18362.1130 (WinBuild.160101.0800)C:\Windows\System32\WS2_32.dll
		10.0.18362.1130 (WinBuild.160101.0800)C:\Windows\System32\CRYPT32.dll
		10.0.18362.1 (WinBuild.160101.0800)C:\Windows\System32\MSASN1.dll
		11.00.18362.1130 (WinBuild.160101.0800)C:\Windows\SYSTEM32\urlmon.dll
		7.0.18362.1130 (WinBuild.160101.0800)C:\Windows\SYSTEM32\PROPSYS.dll
		4.8.4261.0 built by: NET48REL1LAST_BC:\Windows\assembly\NativeImages_v4.0.30319_32\System.Security\eb2986f6a79d4b18a8ad9e6077c08129\System.Security.ni.dll
		10.0.18362.1 (WinBuild.160101.0800)C:\Windows\system32\IconCodecService.dll
		4.8.4150.0 built by: NET48REL1LAST_CC:\Windows\assembly\NativeImages_v4.0.30319_32\WindowsForm0b574481#\eb92040080bf222db70fb65e3c676fa9\WindowsFormsIntegration.ni.dll
		10.0.18362.1130 (WinBuild.160101.0800)C:\Windows\SYSTEM32\DWMAPI.dll
		10.0.18362.1110 (WinBuild.160101.0800)C:\Windows\SYSTEM32\d3d9.dll
		10.0.18362.1 (WinBuild.160101.0800)C:\Windows\SYSTEM32\dxcore.dll
		8.17.10.1663                  C:\Windows\System32\DriverStore\FileRepository\u0353578.inf_amd64_31911ee7e56d8da1\B352783\aticfx32.dll
		10.0.18362.1130 (WinBuild.160101.0800)C:\Windows\SYSTEM32\WINMM.dll
		10.0.18362.1 (WinBuild.160101.0800)C:\Windows\SYSTEM32\winmmbase.dll
		8.14.01.6564                  C:\Windows\System32\DriverStore\FileRepository\u0353578.inf_amd64_31911ee7e56d8da1\B352783\atiu9pag.dll
		9.14.10.01399                 C:\Windows\System32\DriverStore\FileRepository\u0353578.inf_amd64_31911ee7e56d8da1\B352783\atiumdag.dll
		10.0.16299.91 (WinBuild.160101.0800)C:\Program Files (x86)\Micro Focus\LoadRunner\bin\dbghelp.dll
		10.0.16299.91 (WinBuild.160101.0800)C:\Program Files (x86)\Micro Focus\LoadRunner\bin\dbgcore.DLL
		8.14.10.0609                  C:\Windows\System32\DriverStore\FileRepository\u0353578.inf_amd64_31911ee7e56d8da1\B352783\atiumdva.dll
		4.8.3752.0 built by: NET48REL1C:\Windows\assembly\NativeImages_v4.0.30319_32\Presentatioaec034ca#\29f4215ad68a80d59a4fea870a5a8f99\PresentationFramework.Aero2.ni.dll
		10.0.18362.1130 (WinBuild.160101.0800)C:\Windows\SYSTEM32\mscms.dll
		10.0.18362.1130 (WinBuild.160101.0800)C:\Windows\SYSTEM32\USERENV.dll
		10.0.18362.836 (WinBuild.160101.0800)C:\Windows\SYSTEM32\ColorAdapterClient.dll
		10.0.18362.1 (WinBuild.160101.0800)C:\Windows\SYSTEM32\WindowsCodecsExt.dll
		10.0.18362.836 (WinBuild.160101.0800)C:\Windows\system32\dataexchange.dll
		10.0.18362.1171 (WinBuild.160101.0800)C:\Windows\system32\d3d11.dll
		10.0.18362.1110 (WinBuild.160101.0800)C:\Windows\system32\dcomp.dll
		10.0.18362.1049 (WinBuild.160101.0800)C:\Windows\system32\dxgi.dll
		10.0.18362.1130 (WinBuild.160101.0800)C:\Windows\system32\twinapi.appcore.dll
		10.0.18362.267 (WinBuild.160101.0800)C:\Windows\system32\RMCLIENT.dll
		10.0.18362.1198 (WinBuild.160101.0800)C:\Windows\System32\WINTRUST.DLL
		10.0.18362.1 (WinBuild.160101.0800)C:\Windows\System32\imagehlp.dll
		10.0.18362.1 (WinBuild.160101.0800)C:\Windows\System32\psapi.dll
		10.0.18362.1130 (WinBuild.160101.0800)C:\Windows\SYSTEM32\sxs.dll
		2020.0.0.319                  C:\Program Files (x86)\Micro Focus\LoadRunner\bin\RecentScripts.dll
		2020.0.0.267                  C:\Program Files (x86)\Micro Focus\LoadRunner\bin\mosifs32.dll
		2020.0.0.267                  C:\Program Files (x86)\Micro Focus\LoadRunner\bin\wrapicu.dll
		10.0.18362.1130 (WinBuild.160101.0800)C:\Windows\SYSTEM32\IPHLPAPI.DLL
		2020.0.0.267                  C:\Program Files (x86)\Micro Focus\LoadRunner\bin\thrdutil.dll
		55, 1, 0, 0                   C:\Program Files (x86)\Micro Focus\LoadRunner\bin\icuuc55.dll
		55, 1, 0, 0                   C:\Program Files (x86)\Micro Focus\LoadRunner\bin\icudt55.dll
		4.8.4250.0 built by: NET48REL1LAST_CC:\Windows\assembly\NativeImages_v4.0.30319_32\System.Web\c8a7423e8316f88c8d1d799be7493566\System.Web.ni.dll
		4.8.4250.0 built by: NET48REL1LAST_CC:\Windows\Microsoft.NET\Framework\v4.0.30319\webengine4.dll
		10.0.18362.1130 (WinBuild.160101.0800)C:\Windows\system32\mswsock.dll
		2020.0.0.248                  C:\Program Files (x86)\Micro Focus\LoadRunner\bin\snapshotloaderwrap.dll
		20.0.0.610                    C:\Program Files (x86)\Micro Focus\LoadRunner\bin\ViewerGen.dll
		10.0.18362.900 (WinBuild.160101.0800)C:\Windows\SYSTEM32\atlthunk.dll
		11.00.18362.1130 (WinBuild.160101.0800)C:\Windows\System32\ieframe.dll
		10.0.18362.1130 (WinBuild.160101.0800)C:\Windows\System32\WINHTTP.dll
		10.0.18362.1 (WinBuild.160101.0800)C:\Windows\System32\NETAPI32.dll
		10.0.18362.1 (WinBuild.160101.0800)C:\Windows\System32\WKSCLI.DLL
		10.0.18362.1 (WinBuild.160101.0800)C:\Windows\System32\NETUTILS.DLL
		10.0.18362.1130 (WinBuild.160101.0800)C:\Windows\SYSTEM32\DNSAPI.dll
		10.0.18362.1171 (WinBuild.160101.0800)C:\Windows\System32\NSI.dll
		10.0.18362.1 (WinBuild.160101.0800)C:\Windows\System32\rasadhlp.dll
		10.0.18362.1130 (WinBuild.160101.0800)C:\Windows\System32\fwpuclnt.dll
		11.00.18362.1198 (WinBuild.160101.0800)C:\Windows\SYSTEM32\msIso.dll
		11.00.18362.1130 (WinBuild.160101.0800)C:\Windows\System32\mshtml.dll
		14.8.3752.0 built by: NET48REL1C:\Windows\Microsoft.NET\Framework\v4.0.30319\diasymreader.dll
		10.0.18362.1130 (WinBuild.160101.0800)C:\Windows\System32\appresolver.dll
		10.0.18362.997 (WinBuild.160101.0800)C:\Windows\System32\Bcp47Langs.dll
		10.0.18362.1130 (WinBuild.160101.0800)C:\Windows\System32\SLC.dll
		10.0.18362.1130 (WinBuild.160101.0800)C:\Windows\System32\sppc.dll
		11.00.18362.1130 (WinBuild.160101.0800)C:\Windows\System32\WININET.dll
		10.0.18362.1 (WinBuild.160101.0800)C:\Windows\SYSTEM32\LINKINFO.dll
		10.0.18362.1130 (WinBuild.160101.0800)C:\Windows\SYSTEM32\ntshrui.dll
		10.0.18362.1 (WinBuild.160101.0800)C:\Windows\SYSTEM32\srvcli.dll
		10.0.18362.1130 (WinBuild.160101.0800)C:\Windows\System32\srpapi.dll
		10.0.18362.1 (WinBuild.160101.0800)C:\Windows\SYSTEM32\cscapi.dll
		10.0.18362.1130 (WinBuild.160101.0800)C:\Windows\system32\mlang.dll
		10.0.18362.1171 (WinBuild.160101.0800)C:\Windows\SYSTEM32\policymanager.dll
		10.0.18362.1 (WinBuild.160101.0800)C:\Windows\SYSTEM32\msvcp110_win.dll
		10.0.18362.1130 (WinBuild.160101.0800)C:\Windows\SYSTEM32\WLDP.DLL
		20.0.0.610                    C:\Program Files (x86)\Micro Focus\LoadRunner\bin\ielpview.dll
		14.13.26020.0 built by: VCTOOLSRELC:\Windows\SYSTEM32\MSVCP140.dll
		20.0.0.610                    C:\Program Files (x86)\Micro Focus\LoadRunner\bin\AsmHook.dll
		20.0.0.610                    C:\Program Files (x86)\Micro Focus\LoadRunner\bin\VirFileSystemMng.dll
		20.0.0.610                    C:\Program Files (x86)\Micro Focus\LoadRunner\bin\VirPrivateProfiles.dll
		4.8.3752.0 built by: NET48REL1C:\Windows\assembly\NativeImages_v4.0.30319_32\Accessibility\c82529e9700944c98cd053bd739dab52\Accessibility.ni.dll
		4.8.4270.0 built by: NET48REL1LAST_CC:\Windows\assembly\NativeImages_v4.0.30319_32\UIAutomationTypes\c6104eed0baaf964626f7450a648cbb2\UIAutomationTypes.ni.dll
		4.8.4270.0 built by: NET48REL1LAST_CC:\Windows\assembly\NativeImages_v4.0.30319_32\UIAutomationProvider\1fe1464b2cb159c9fbe49db59596be77\UIAutomationProvider.ni.dll
		7.2.18362.1130 (WinBuild.160101.0800)C:\Windows\SYSTEM32\UIAutomationCore.dll
		10.0.18362.1130 (WinBuild.160101.0800)C:\Windows\system32\msimtf.dll
		3.10.349.0                    C:\Windows\System32\msls31.dll
		10.0.18362.1130 (WinBuild.160101.0800)C:\Windows\System32\d2d1.dll
		10.0.18362.1049 (WinBuild.160101.0800)C:\Windows\SYSTEM32\d3d10warp.dll
		10.0.18362.1 (WinBuild.160101.0800)C:\Windows\SYSTEM32\Secur32.dll
		4.8.3752.0 built by: NET48REL1C:\Windows\assembly\NativeImages_v4.0.30319_32\Presentatio1c9175f8#\969c3b2d0005993c54d845059cf81ea7\PresentationFramework.Aero.ni.dll
		10.0.18362.1130 (WinBuild.160101.0800)C:\Windows\SYSTEM32\MsftEdit.DLL
		10.0.18362.1 (WinBuild.160101.0800)C:\Windows\SYSTEM32\wtsapi32.dll
		10.0.18362.836 (WinBuild.160101.0800)C:\Windows\SYSTEM32\WINSTA.dll
		10.0.18362.1130 (WinBuild.160101.0800)C:\Windows\system32\msctfui.dll
		10.0.18362.1130 (WinBuild.160101.0800)C:\Windows\system32\explorerframe.dll
		10.0.17134.12 (WinBuild.160101.0800)C:\Program Files (x86)\Micro Focus\LoadRunner\bin\D3DCOMPILER_47.dll
		10.0.18362.1130 (WinBuild.160101.0800)C:\Windows\SYSTEM32\rasapi32.dll
		10.0.18362.1 (WinBuild.160101.0800)C:\Windows\SYSTEM32\rasman.dll
		10.0.18362.650 (WinBuild.160101.0800)C:\Windows\SYSTEM32\rtutils.dll
		10.0.18362.1130 (WinBuild.160101.0800)C:\Windows\SYSTEM32\dhcpcsvc6.DLL
		10.0.18362.1130 (WinBuild.160101.0800)C:\Windows\SYSTEM32\dhcpcsvc.DLL
		10.0.18362.449 (WinBuild.160101.0800)C:\Windows\SYSTEM32\WINNSI.DLL
		10.0.18362.650 (WinBuild.160101.0800)C:\Windows\System32\Windows.Globalization.dll
		10.0.18362.997 (WinBuild.160101.0800)C:\Windows\System32\bcp47mrm.dll
		10.0.18362.997 (WinBuild.160101.0800)C:\Windows\SYSTEM32\globinputhost.dll
		10.0.18362.1130 (WinBuild.160101.0800)C:\Windows\System32\schannel.dll
		10.0.18362.1130 (WinBuild.160101.0800)C:\Windows\SYSTEM32\mskeyprotect.dll
		10.0.18362.1130 (WinBuild.160101.0800)C:\Windows\SYSTEM32\ncrypt.dll
		10.0.18362.650 (WinBuild.160101.0800)C:\Windows\SYSTEM32\NTASN1.dll
		10.0.18362.1 (WinBuild.160101.0800)C:\Windows\system32\ncryptsslp.dll
		4.8.3752.0 built by: NET48REL1C:\Windows\assembly\NativeImages_v4.0.30319_32\Microsoft.Build\8b3ee3f6d756658e0c480dac002b0617\Microsoft.Build.ni.dll
		4.8.3752.0 built by: NET48REL1C:\Windows\assembly\NativeImages_v4.0.30319_32\Microsoft.B3325a29b#\eb00e6cc6dc1756727130aba8209a92f\Microsoft.Build.Framework.ni.dll
		2020.0.0.248                  C:\Program Files (x86)\Micro Focus\LoadRunner\bin\coparamui.dll
		2020.0.0.267                  C:\Program Files (x86)\Micro Focus\LoadRunner\bin\PathResolver.dll
		2020.0.0.248                  C:\Program Files (x86)\Micro Focus\LoadRunner\bin\paramui.dll
		2020.0.0.267                  C:\Program Files (x86)\Micro Focus\LoadRunner\bin\parameng.dll
		2020.0.0.267                  C:\Program Files (x86)\Micro Focus\LoadRunner\bin\dtable32.dll
		10.0.18362.1130 (WinBuild.160101.0800)C:\Windows\SYSTEM32\MPR.dll
		2020.0.0.248                  C:\Program Files (x86)\Micro Focus\LoadRunner\bin\is32.dll
		2020.0.0.248                  C:\Program Files (x86)\Micro Focus\LoadRunner\bin\lr_vug32.dll
		2020.0.0.267                  C:\Program Files (x86)\Micro Focus\LoadRunner\bin\msg_handler.dll
		24, 3, 0, 0                   C:\Program Files (x86)\Micro Focus\LoadRunner\bin\BCGCBPRO2430140.dll
		2020.0.0.267                  C:\Program Files (x86)\Micro Focus\LoadRunner\bin\mlib_ds.dll
		2020.0.0.267                  C:\Program Files (x86)\Micro Focus\LoadRunner\bin\config.dll
		2020.0.0.267                  C:\Program Files (x86)\Micro Focus\LoadRunner\bin\libxdrutil.dll
		2020.0.0.267                  C:\Program Files (x86)\Micro Focus\LoadRunner\bin\run_time_context.dll
		10.0.18362.1130 (WinBuild.160101.0800)C:\Windows\System32\COMDLG32.dll
		2020.0.0.248                  C:\Program Files (x86)\Micro Focus\LoadRunner\bin\inifile.dll
		2020.0.0.267                  C:\Program Files (x86)\Micro Focus\LoadRunner\bin\runlogic.dll
		2020.0.0.248                  C:\Program Files (x86)\Micro Focus\LoadRunner\bin\vusercfg.dll
		2020.0.0.248                  C:\Program Files (x86)\Micro Focus\LoadRunner\bin\MultiVuser.dll
		2020.0.0.267                  C:\Program Files (x86)\Micro Focus\LoadRunner\bin\xdr.dll
		2020.0.0.267                  C:\Program Files (x86)\Micro Focus\LoadRunner\bin\rtc_protocol.dll
		10.0.18362.693 (WinBuild.160101.0800)C:\Windows\SYSTEM32\ODBC32.dll
		10.0.18362.1130 (WinBuild.160101.0800)C:\Windows\SYSTEM32\WINSPOOL.DRV
		7.2.18362.1 (WinBuild.160101.0800)C:\Windows\SYSTEM32\OLEACC.dll
		2020.0.0.267                  C:\Program Files (x86)\Micro Focus\LoadRunner\bin\comm_util.dll
		10.0.18362.1 (WinBuild.160101.0800)C:\Windows\SYSTEM32\DPAPI.DLL
		10.0.18362.1082 (WinBuild.160101.0800)C:\Windows\SYSTEM32\msimg32.dll
		2020.0.0.267                  C:\Program Files (x86)\Micro Focus\LoadRunner\bin\paramlr.dll
		2020.0.0.267                  C:\Program Files (x86)\Micro Focus\LoadRunner\bin\paramtbl.dll
		2020.0.0.267                  C:\Program Files (x86)\Micro Focus\LoadRunner\bin\mmdtable.dll
		2020.0.0.267                  C:\Program Files (x86)\Micro Focus\LoadRunner\bin\mmdbigtable.dll
		2020.0.0.267                  C:\Program Files (x86)\Micro Focus\LoadRunner\bin\libmemmap.dll
		2020.0.0.267                  C:\Program Files (x86)\Micro Focus\LoadRunner\bin\paramcst.dll
		2020.0.0.267                  C:\Program Files (x86)\Micro Focus\LoadRunner\bin\paramunq.dll
		2020.0.0.267                  C:\Program Files (x86)\Micro Focus\LoadRunner\bin\paramfnc.dll
		2020.0.0.267                  C:\Program Files (x86)\Micro Focus\LoadRunner\bin\paramss.dll
		2020.0.0.267                  C:\Program Files (x86)\Micro Focus\LoadRunner\bin\paramdte.dll
		2020.0.0.267                  C:\Program Files (x86)\Micro Focus\LoadRunner\bin\paramvar.dll
		2020.0.0.267                  C:\Program Files (x86)\Micro Focus\LoadRunner\bin\paramrnd.dll
		2020.0.0.793                  C:\Program Files (x86)\Micro Focus\LoadRunner\bin\ArchiveManager.dll
		2020.0.0.248                  C:\Program Files (x86)\Micro Focus\LoadRunner\bin\runlogicview.ocx
		2020.0.0.793                  C:\Program Files (x86)\Micro Focus\LoadRunner\bin\HP.LR.VuGen.ScriptHandlerComWrapper.dll
		2020.0.0.793                  C:\Program Files (x86)\Micro Focus\LoadRunner\bin\lrscripthandler.DLL
		2020.0.0.793                  C:\Program Files (x86)\Micro Focus\LoadRunner\bin\webscripthandler.DLL
		2020.0.0.793                  C:\Program Files (x86)\Micro Focus\LoadRunner\bin\WebStepClsDesign.dll
		2020.0.0.793                  C:\Program Files (x86)\Micro Focus\LoadRunner\bin\WebStepClsShared.dll
		2020.0.0.793                  C:\Program Files (x86)\Micro Focus\LoadRunner\bin\DynWininet.dll
		2020.0.0.793                  C:\Program Files (x86)\Micro Focus\LoadRunner\bin\mshtmtr.dll
		2020.0.0.267                  C:\Program Files (x86)\Micro Focus\LoadRunner\bin\wraplwcrypto.dll
		2020.0.0.793                  C:\Program Files (x86)\Micro Focus\LoadRunner\bin\LrXmlScriptHandler.DLL
		2020.0.0.248                  C:\Program Files (x86)\Micro Focus\LoadRunner\bin\ReplayBinaryUtils32.dll
		10.0.18362.1130 (WinBuild.160101.0800)C:\Windows\SYSTEM32\WSOCK32.dll
		2020.0.0.793                  C:\Program Files (x86)\Micro Focus\LoadRunner\bin\websteps_scripthandler.DLL
		2020.0.0.248                  C:\Program Files (x86)\Micro Focus\LoadRunner\bin\base_scripthandler.dll
		10.0.18362.1 (WinBuild.160101.0800)C:\Windows\SYSTEM32\RICHED32.DLL
		5.31.23.1231                  C:\Windows\SYSTEM32\RICHED20.dll
		10.0.18362.476 (WinBuild.160101.0800)C:\Windows\SYSTEM32\USP10.dll
		2020.0.0.793                  C:\Program Files (x86)\Micro Focus\LoadRunner\bin\WebUIRes.DLL
		2020.0.0.793                  C:\Program Files (x86)\Micro Focus\LoadRunner\bin\webservice_scripthandler.DLL
		2020.0.0.793                  C:\Program Files (x86)\Micro Focus\LoadRunner\bin\ServiceManagementLight.dll
		2020.0.0.793                  C:\Program Files (x86)\Micro Focus\LoadRunner\bin\WSDLSDK.dll
		2020.0.0.793                  C:\Program Files (x86)\Micro Focus\LoadRunner\bin\WebServicesSDK.dll
		2020.0.0.793                  C:\Program Files (x86)\Micro Focus\LoadRunner\bin\SoapRecordFilter.dll
		2020.0.0.267                  C:\Program Files (x86)\Micro Focus\LoadRunner\bin\XmlParserInterface.dll
		2020.0.0.793                  C:\Program Files (x86)\Micro Focus\LoadRunner\bin\LrJni.dll
		2020.0.0.793                  C:\Program Files (x86)\Micro Focus\LoadRunner\bin\WSDLParser.dll
		2020.0.0.793                  C:\Program Files (x86)\Micro Focus\LoadRunner\bin\WSDLUtilsU.dll
		2020.0.0.793                  C:\Program Files (x86)\Micro Focus\LoadRunner\bin\WsCommonLogger.dll
		3, 1, 2, 0                    C:\Program Files (x86)\Micro Focus\LoadRunner\bin\xerces-c_3_1.dll
		1, 11, 0, 0                   C:\Program Files (x86)\Micro Focus\LoadRunner\bin\Xalan-C_1_11.dll
		2020.0.0.267                  C:\Program Files (x86)\Micro Focus\LoadRunner\bin\mic_regex.dll
		2020.0.0.793                  C:\Program Files (x86)\Micro Focus\LoadRunner\bin\ConfigurationUtil.dll
		2020.0.0.793                  C:\Program Files (x86)\Micro Focus\LoadRunner\bin\HttpUtils.dll
		2020.0.0.793                  C:\Program Files (x86)\Micro Focus\LoadRunner\bin\MicXMLDiffTool.dll
		2020.0.0.793                  C:\Program Files (x86)\Micro Focus\LoadRunner\bin\WSDLToolkits.dll
		                              C:\Program Files (x86)\Micro Focus\LoadRunner\bin\XalanMessages_1_11.dll
		2020.0.0.793                  C:\Program Files (x86)\Micro Focus\LoadRunner\bin\soap_scripthandler.DLL
		4.8.3752.0                    C:\Windows\assembly\NativeImages_v4.0.30319_32\Microsoft.CSharp\144db158ab94d8e777c2328033ae671d\Microsoft.CSharp.ni.dll
		4.8.3752.0                    C:\Windows\assembly\NativeImages_v4.0.30319_32\System.Dynamic\3866b1323004cff632885ad169d29626\System.Dynamic.ni.dll
		2020.0.0.248                  C:\Program Files (x86)\Micro Focus\LoadRunner\bin\ParamUINotification.dll
		0.22.0                        C:\Program Files (x86)\Micro Focus\LoadRunner\bin\NativeBinaries\x86\git2-a56db99.DLL
		2020.0.0.248                  C:\Program Files (x86)\Micro Focus\LoadRunner\bin\HP.LR.VuGen.LrVugHelper.dll
		2020.0.0.793                  C:\Program Files (x86)\Micro Focus\LoadRunner\bin\TextContainer.dll
		10.0.18362.1 (WinBuild.160101.0800)C:\Windows\System32\coml2.dll
		2020.0.0.248                  C:\Program Files (x86)\Micro Focus\LoadRunner\bin\rtsxdlg.dll
		2020.0.0.267                  C:\Program Files (x86)\Micro Focus\LoadRunner\bin\ipng_utils.dll
		1.1.1b                        C:\Program Files (x86)\Micro Focus\LoadRunner\bin\libssl-lt-1_1.dll
		1.1.1b                        C:\Program Files (x86)\Micro Focus\LoadRunner\bin\libcrypto-lt-1_1.dll
		2020.0.0.267                  C:\Program Files (x86)\Micro Focus\LoadRunner\bin\trans.dll
		2020.0.0.267                  C:\Program Files (x86)\Micro Focus\LoadRunner\bin\wrapzlib.dll
		2020.0.0.267                  C:\Program Files (x86)\Micro Focus\LoadRunner\bin\lr_exp.dll
		2020.0.0.267                  C:\Program Files (x86)\Micro Focus\LoadRunner\bin\trans_server.dll
		2020.0.0.267                  C:\Program Files (x86)\Micro Focus\LoadRunner\bin\libdatatypes.dll
		2020.0.0.267                  C:\Program Files (x86)\Micro Focus\LoadRunner\bin\data_types_ifs.dll
		2020.0.0.267                  C:\Program Files (x86)\Micro Focus\LoadRunner\bin\timediff_ext.dll
		2020.0.0.267                  C:\Program Files (x86)\Micro Focus\LoadRunner\bin\jrequestor_srv.dll
		2020.0.0.267                  C:\Program Files (x86)\Micro Focus\LoadRunner\bin\dc_requests.dll
		2020.0.0.793                  C:\Program Files (x86)\Micro Focus\LoadRunner\bin\comrec_tab.dll
		2020.0.0.793                  C:\Program Files (x86)\Micro Focus\LoadRunner\bin\script_language_helper.dll
		2020.0.0.793                  C:\Program Files (x86)\Micro Focus\LoadRunner\bin\tlb_query.dll
		2020.0.0.793                  C:\Program Files (x86)\Micro Focus\LoadRunner\bin\api_scrinfo.dll
		2020.0.0.793                  C:\Program Files (x86)\Micro Focus\LoadRunner\bin\unknown_only_helper.dll
		2020.0.0.793                  C:\Program Files (x86)\Micro Focus\LoadRunner\bin\xmlstorage.dll
		8.110.18362.1110              C:\Windows\System32\msxml3.dll
		2020.0.0.248                  C:\Program Files (x86)\Micro Focus\LoadRunner\bin\vugen_record_api.dll
		2020.0.0.248                  C:\Program Files (x86)\Micro Focus\LoadRunner\bin\insp_gen.dll
		2020.0.0.248                  C:\Program Files (x86)\Micro Focus\LoadRunner\bin\inspdll.dll
		2020.0.0.248                  C:\Program Files (x86)\Micro Focus\LoadRunner\bin\pefile.dll
		2020.0.0.793                  C:\Program Files (x86)\Micro Focus\LoadRunner\bin\type_info_pool.dll
		2020.0.0.793                  C:\Program Files (x86)\Micro Focus\LoadRunner\bin\CodeGenerationAPI.dll
		2020.0.0.793                  C:\Program Files (x86)\Micro Focus\LoadRunner\bin\InternalSDKUtils.dll
		2020.0.0.793                  C:\Program Files (x86)\Micro Focus\LoadRunner\bin\LRSDKUtilities.dll
		                              C:\Program Files (x86)\Micro Focus\LoadRunner\bin\WebEventTrafficMap.dll
		2020.0.0.793                  C:\Program Files (x86)\Micro Focus\LoadRunner\bin\VuGenCallback.dll
		2020.0.0.793                  C:\Program Files (x86)\Micro Focus\LoadRunner\bin\api_inspector.dll
		2020.0.0.267                  C:\Program Files (x86)\Micro Focus\LoadRunner\bin\trpfnc32.dll
		2020.0.0.248                  C:\Program Files (x86)\Micro Focus\LoadRunner\bin\HTTPSnapshotsWrapper.dll
		2020.0.0.793                  C:\Program Files (x86)\Micro Focus\LoadRunner\bin\Api_Filter_Helper.dll
		10.0.18362.1130 (WinBuild.160101.0800)C:\Windows\System32\Windows.ApplicationModel.dll
		4.8.3752.0                    C:\Windows\assembly\NativeImages_v4.0.30319_32\System.Runtbff93e24#\65dee6303a18a3f0db360264a9501590\System.Runtime.InteropServices.WindowsRuntime.ni.dll
		10.0.18362.1130 (WinBuild.160101.0800)C:\Windows\System32\twinapi.dll
		2020.0.0.793                  C:\Program Files (x86)\Micro Focus\LoadRunner\bin\lrc_basic_filters.dll
		2020.0.0.793                  C:\Program Files (x86)\Micro Focus\LoadRunner\bin\api_event_parser.dll
		2020.0.0.793                  C:\Program Files (x86)\Micro Focus\LoadRunner\bin\traffic_filter.dll
		                              C:\Program Files (x86)\Micro Focus\LoadRunner\bin\pcre-8.42.dll
		2020.0.0.793                  C:\Program Files (x86)\Micro Focus\LoadRunner\bin\api_sock_filter.dll
		2020.0.0.793                  C:\Program Files (x86)\Micro Focus\LoadRunner\bin\WebDataFormatsCodeGen.dll
		2020.0.0.793                  C:\Program Files (x86)\Micro Focus\LoadRunner\bin\DataFormatsEngine.dll
		2020.0.0.793                  C:\Program Files (x86)\Micro Focus\LoadRunner\bin\WebSnapshotsCommon.dll
		2020.0.0.793                  C:\Program Files (x86)\Micro Focus\LoadRunner\bin\WebSocketFilter.dll
		2020.0.0.793                  C:\Program Files (x86)\Micro Focus\LoadRunner\bin\VnpLog.dll
		2020.0.0.793                  C:\Program Files (x86)\Micro Focus\LoadRunner\bin\VnpUtils.dll
		2020.0.0.793                  C:\Program Files (x86)\Micro Focus\LoadRunner\bin\WebHTMLCodeGen.dll
		2.9.0                         C:\Program Files (x86)\Micro Focus\LoadRunner\bin\cpprest140_2_9.dll
		2020.0.0.793                  C:\Program Files (x86)\Micro Focus\LoadRunner\bin\WebRecorder.dll
		                              C:\Program Files (x86)\Micro Focus\LoadRunner\bin\boost_filesystem-vc140-mt-1_60.dll
		                              C:\Program Files (x86)\Micro Focus\LoadRunner\bin\boost_system-vc140-mt-1_60.dll
		10.0.18362.650 (WinBuild.160101.0800)C:\Windows\SYSTEM32\HTTPAPI.dll
		14.13.26020.0 built by: VCTOOLSRELC:\Windows\SYSTEM32\CONCRT140.dll
		2020.0.0.793                  C:\Program Files (x86)\Micro Focus\LoadRunner\bin\LrwiStreamingParser.dll
		2020.0.0.793                  C:\Program Files (x86)\Micro Focus\LoadRunner\bin\LrwiWebInfra.dll
		2020.0.0.793                  C:\Program Files (x86)\Micro Focus\LoadRunner\bin\WebCorrelation.dll
		2020.0.0.267                  C:\Program Files (x86)\Micro Focus\LoadRunner\bin\jconv_str.dll
		                              C:\Program Files (x86)\Micro Focus\LoadRunner\bin\duktape.dll
		2020.0.0.267                  C:\Program Files (x86)\Micro Focus\LoadRunner\bin\http_auth.dll
		2020.0.0.267                  C:\Program Files (x86)\Micro Focus\LoadRunner\bin\lrun50.dll
		2020.0.0.793                  C:\Program Files (x86)\Micro Focus\LoadRunner\bin\LrXml.dll
		2020.0.0.793                  C:\Program Files (x86)\Micro Focus\LoadRunner\bin\LrJson.dll
		2020.0.0.267                  C:\Program Files (x86)\Micro Focus\LoadRunner\bin\merc_uuid.dll
		2020.0.0.267                  C:\Program Files (x86)\Micro Focus\LoadRunner\bin\faserver.dll
		2020.0.0.267                  C:\Program Files (x86)\Micro Focus\LoadRunner\bin\JsonParser.dll
		2020.0.0.793                  C:\Program Files (x86)\Micro Focus\LoadRunner\bin\VnpReport.dll
		2020.0.0.793                  C:\Program Files (x86)\Micro Focus\LoadRunner\bin\WebConvertFromFormattedFilter.dll
		2020.0.0.793                  C:\Program Files (x86)\Micro Focus\LoadRunner\bin\WebConvertFromFormattedPostFilter.dll
		2020.0.0.793                  C:\Program Files (x86)\Micro Focus\LoadRunner\bin\WebExtractServerNameFilter.dll
		2020.0.0.793                  C:\Program Files (x86)\Micro Focus\LoadRunner\bin\lrc_com_filters.dll
		2020.0.0.793                  C:\Program Files (x86)\Micro Focus\LoadRunner\bin\WebRemoveLongBodyFilter.DLL
		2020.0.0.793                  C:\Program Files (x86)\Micro Focus\LoadRunner\bin\lrc_code_gen_filter.dll
