HTTP/1.1 200 OK
Date: Thu, 19 Nov 2020 16:30:49 GMT
Server: Apache/2.2.21 (Win32)
Keep-Alive: timeout=5, max=100
Connection: Keep-Alive
Transfer-Encoding: chunked
Content-Type: text/html; charset=ISO-8859-1

