HTTP/1.1 200 OK
Date: Wed, 18 Nov 2020 17:24:45 GMT
Server: Apache/2.2.21 (Win32)
Expires: Tue, 17 Nov 2020 17:24:45 GMT
Set-Cookie: MTUserInfo=; path=/
Keep-Alive: timeout=5, max=91
Connection: Keep-Alive
Transfer-Encoding: chunked
Content-Type: text/html; charset=ISO-8859-1

