HTTP/1.1 200 OK
Date: Wed, 18 Nov 2020 17:24:46 GMT
Server: Apache/2.2.21 (Win32)
Set-Cookie: MSO=SID&1605720286&MSO_JSFormSubmit1&on&MSO_ServerErrorsProb&50&MSO_ServerLoadProb&50; path=/
Set-Cookie: MTUserInfo=; path=/; expires=Tue, 17-Nov-2020 17:24:46 GMT
Keep-Alive: timeout=5, max=90
Connection: Keep-Alive
Transfer-Encoding: chunked
Content-Type: text/html; charset=ISO-8859-1

