HTTP/1.1 200 OK
Date: Fri, 20 Nov 2020 10:10:15 GMT
Server: Apache/2.2.21 (Win32)
Expires: 5s
Keep-Alive: timeout=5, max=97
Connection: Keep-Alive
Transfer-Encoding: chunked
Content-Type: text/html; charset=ISO-8859-1

