HTTP/1.1 200 OK
Date: Fri, 20 Nov 2020 10:10:16 GMT
Server: Apache/2.2.21 (Win32)
Expires: Thu, 19 Nov 2020 10:10:17 GMT
Keep-Alive: timeout=5, max=92
Connection: Keep-Alive
Transfer-Encoding: chunked
Content-Type: text/html; charset=ISO-8859-1

